<?xml version="1.0" encoding="utf-8"?>
<!-- Generator: Adobe Illustrator 17.1.0, SVG Export Plug-In . SVG Version: 6.00 Build 0)  -->
<!DOCTYPE svg PUBLIC "-//W3C//DTD SVG 1.1//EN" "http://www.w3.org/Graphics/SVG/1.1/DTD/svg11.dtd">
<svg version="1.1" id="Layer_1" xmlns="http://www.w3.org/2000/svg" xmlns:xlink="http://www.w3.org/1999/xlink" x="0px" y="0px"
	 viewBox="0 0 16 16" enable-background="new 0 0 16 16" xml:space="preserve">
<g>
	<path d="M14,2v8H4.9c-1,0-1.9,0.5-2.9,1.1V11V2H14 M15,0H1C0.4,0,0,0.5,0,1v10c0,0.6,0,1,0,1s0,0.4,0,1v2c0,0.3,0.1,0.5,0.3,0.5
		c0.1,0,0.3-0.1,0.4-0.2l2.5-2.6C3.6,12.3,4.4,12,4.9,12H15c0.6,0,1-0.4,1-1V1C16,0.5,15.6,0,15,0L15,0z"/>
</g>
</svg>
