<?xml version="1.0" encoding="utf-8"?>
<!-- Generator: Adobe Illustrator 17.1.0, SVG Export Plug-In . SVG Version: 6.00 Build 0)  -->
<!DOCTYPE svg PUBLIC "-//W3C//DTD SVG 1.1//EN" "http://www.w3.org/Graphics/SVG/1.1/DTD/svg11.dtd">
<svg version="1.1" id="Layer_1" xmlns="http://www.w3.org/2000/svg" xmlns:xlink="http://www.w3.org/1999/xlink" x="0px" y="0px"
	 viewBox="0 0 22 22" enable-background="new 0 0 22 22" xml:space="preserve">
<g>
	<path fill="#FFFFFF" d="M11,21C5.5,21,1,16.5,1,11C1,5.5,5.5,1,11,1c5.5,0,10,4.5,10,10C21,16.5,16.5,21,11,21z"/>
	<path fill="#EC7B65" d="M11,2c5,0,9,4,9,9s-4,9-9,9s-9-4-9-9S6,2,11,2 M11,0C4.9,0,0,4.9,0,11s4.9,11,11,11s11-4.9,11-11
		S17.1,0,11,0L11,0z"/>
</g>
<g>
	<path fill="#EC7B65" d="M11,17.8c-3.7,0-6.8-3-6.8-6.8s3-6.8,6.8-6.8s6.8,3,6.8,6.8S14.7,17.8,11,17.8z"/>
	<path fill="#EC7B65" d="M11,5.2c3.2,0,5.8,2.6,5.8,5.8s-2.6,5.8-5.8,5.8S5.2,14.2,5.2,11S7.8,5.2,11,5.2 M11,3.2
		c-4.3,0-7.8,3.5-7.8,7.8s3.5,7.8,7.8,7.8s7.8-3.5,7.8-7.8S15.3,3.2,11,3.2L11,3.2z"/>
</g>
<text transform="matrix(1 0 0 1 8.5975 13.9058)" fill="#FFFFFF" font-family="'MyriadPro-Bold'" font-size="9.3198">$</text>
</svg>
